Detected Network Interfaces: [10.0.0.2]
Serving new connection: 70a453487da67070, version 37 from 10.0.0.1:40247
Using a RoundRobin Scheduler...
Writing on path 0 with packet number 1
Writing on path 0 with packet number 2
Writing on path 0 with packet number 3
Writing on path 0 with packet number 4
Writing on path 0 with packet number 5
Writing on path 0 with packet number 6
Writing on path 0 with packet number 7
Writing on path 0 with packet number 8
GET 10.0.0.2:6121/test1Mb.db
Responding with 200
Writing on path 0 with packet number 9
Writing on path 0 with packet number 10
Writing on path 0 with packet number 11
Writing on path 0 with packet number 12
Writing on path 0 with packet number 13
Writing on path 0 with packet number 14
Writing on path 0 with packet number 15
Writing on path 0 with packet number 16
Writing on path 0 with packet number 17
Writing on path 0 with packet number 18
Writing on path 0 with packet number 19
Writing on path 0 with packet number 20
Writing on path 0 with packet number 21
Writing on path 0 with packet number 22
Writing on path 0 with packet number 23
Writing on path 0 with packet number 24
Writing on path 0 with packet number 25
Writing on path 0 with packet number 26
Writing on path 0 with packet number 27
Writing on path 0 with packet number 28
Writing on path 0 with packet number 29
Writing on path 0 with packet number 30
Writing on path 0 with packet number 31
Writing on path 0 with packet number 32
Writing on path 0 with packet number 33
Writing on path 0 with packet number 34
Writing on path 0 with packet number 35
Writing on path 0 with packet number 36
Writing on path 0 with packet number 37
Writing on path 0 with packet number 38
Writing on path 0 with packet number 39
Writing on path 0 with packet number 40
Writing on path 0 with packet number 41
Writing on path 0 with packet number 42
Writing on path 0 with packet number 43
Writing on path 0 with packet number 44
Writing on path 0 with packet number 45
Writing on path 0 with packet number 46
Writing on path 0 with packet number 47
Writing on path 0 with packet number 48
Writing on path 0 with packet number 49
Writing on path 0 with packet number 50
Writing on path 0 with packet number 51
Writing on path 0 with packet number 52
Writing on path 0 with packet number 53
Writing on path 0 with packet number 54
Writing on path 0 with packet number 55
Writing on path 0 with packet number 56
Writing on path 0 with packet number 57
Writing on path 0 with packet number 58
Writing on path 0 with packet number 59
Writing on path 0 with packet number 60
Writing on path 0 with packet number 61
Writing on path 0 with packet number 62
Writing on path 0 with packet number 63
Writing on path 0 with packet number 64
Writing on path 0 with packet number 65
Writing on path 0 with packet number 66
Writing on path 0 with packet number 67
Writing on path 0 with packet number 68
Writing on path 0 with packet number 69
Writing on path 0 with packet number 70
Writing on path 0 with packet number 71
Writing on path 0 with packet number 72
Writing on path 0 with packet number 73
Writing on path 0 with packet number 74
Writing on path 0 with packet number 75
Writing on path 0 with packet number 76
Writing on path 0 with packet number 77
Writing on path 0 with packet number 78
Writing on path 0 with packet number 79
Writing on path 0 with packet number 80
Writing on path 0 with packet number 81
Writing on path 0 with packet number 82
Writing on path 0 with packet number 83
Writing on path 0 with packet number 84
Writing on path 0 with packet number 85
Writing on path 0 with packet number 86
Writing on path 0 with packet number 87
Writing on path 0 with packet number 88
Writing on path 0 with packet number 89
Writing on path 0 with packet number 90
Writing on path 0 with packet number 91
Writing on path 0 with packet number 92
Writing on path 0 with packet number 93
Writing on path 0 with packet number 94
Writing on path 0 with packet number 95
Writing on path 0 with packet number 96
Writing on path 0 with packet number 97
Writing on path 0 with packet number 98
Writing on path 0 with packet number 99
Writing on path 0 with packet number 100
Writing on path 0 with packet number 101
Writing on path 0 with packet number 102
Writing on path 0 with packet number 103
Writing on path 0 with packet number 104
Writing on path 0 with packet number 105
Writing on path 0 with packet number 106
Writing on path 0 with packet number 107
Writing on path 0 with packet number 108
Writing on path 0 with packet number 109
Writing on path 0 with packet number 110
Writing on path 0 with packet number 111
Writing on path 0 with packet number 112
Writing on path 0 with packet number 113
Writing on path 0 with packet number 114
Writing on path 0 with packet number 115
Writing on path 0 with packet number 116
Writing on path 0 with packet number 117
Writing on path 0 with packet number 118
Writing on path 0 with packet number 119
Writing on path 0 with packet number 120
Writing on path 0 with packet number 121
Writing on path 0 with packet number 122
Writing on path 0 with packet number 123
Writing on path 0 with packet number 124
Writing on path 0 with packet number 125
Writing on path 0 with packet number 126
Writing on path 0 with packet number 127
Writing on path 0 with packet number 128
Writing on path 0 with packet number 129
Writing on path 0 with packet number 130
Writing on path 0 with packet number 131
Writing on path 0 with packet number 132
Writing on path 0 with packet number 133
Writing on path 0 with packet number 134
Writing on path 0 with packet number 135
Writing on path 0 with packet number 136
Writing on path 0 with packet number 137
Writing on path 0 with packet number 138
Writing on path 0 with packet number 139
Writing on path 0 with packet number 140
Writing on path 0 with packet number 141
Writing on path 0 with packet number 142
Writing on path 0 with packet number 143
Writing on path 0 with packet number 144
Writing on path 0 with packet number 145
Writing on path 0 with packet number 146
Writing on path 0 with packet number 147
Writing on path 0 with packet number 148
Writing on path 0 with packet number 149
Writing on path 0 with packet number 150
Writing on path 0 with packet number 151
Writing on path 0 with packet number 152
Writing on path 0 with packet number 153
Writing on path 0 with packet number 154
Writing on path 0 with packet number 155
Writing on path 0 with packet number 156
Writing on path 0 with packet number 157
Writing on path 0 with packet number 158
Writing on path 0 with packet number 159
Writing on path 0 with packet number 160
Writing on path 0 with packet number 161
Writing on path 0 with packet number 162
Writing on path 0 with packet number 163
Writing on path 0 with packet number 164
Writing on path 0 with packet number 165
Writing on path 0 with packet number 166
Writing on path 0 with packet number 167
Writing on path 0 with packet number 168
Writing on path 0 with packet number 169
Writing on path 0 with packet number 170
Writing on path 0 with packet number 171
Writing on path 0 with packet number 172
Writing on path 0 with packet number 173
Writing on path 0 with packet number 174
Writing on path 0 with packet number 175
Writing on path 0 with packet number 176
Writing on path 0 with packet number 177
Writing on path 0 with packet number 178
Writing on path 0 with packet number 179
Writing on path 0 with packet number 180
Writing on path 0 with packet number 181
Writing on path 0 with packet number 182
Writing on path 0 with packet number 183
Writing on path 0 with packet number 184
Writing on path 0 with packet number 185
Writing on path 0 with packet number 186
Writing on path 0 with packet number 187
Writing on path 0 with packet number 188
Writing on path 0 with packet number 189
Writing on path 0 with packet number 190
Writing on path 0 with packet number 191
Writing on path 0 with packet number 192
Writing on path 0 with packet number 193
Writing on path 0 with packet number 194
Writing on path 0 with packet number 195
Writing on path 0 with packet number 196
Writing on path 0 with packet number 197
Writing on path 0 with packet number 198
Writing on path 0 with packet number 199
Writing on path 0 with packet number 200
Writing on path 0 with packet number 201
Writing on path 0 with packet number 202
Writing on path 0 with packet number 203
Writing on path 0 with packet number 204
Writing on path 0 with packet number 205
Writing on path 0 with packet number 206
Writing on path 0 with packet number 207
Writing on path 0 with packet number 208
Writing on path 0 with packet number 209
Writing on path 0 with packet number 210
Writing on path 0 with packet number 211
Writing on path 0 with packet number 212
Writing on path 0 with packet number 213
Writing on path 0 with packet number 214
Writing on path 0 with packet number 215
Writing on path 0 with packet number 216
Writing on path 0 with packet number 217
Writing on path 0 with packet number 218
Writing on path 0 with packet number 219
Writing on path 0 with packet number 220
Writing on path 0 with packet number 221
Writing on path 0 with packet number 222
Writing on path 0 with packet number 223
Writing on path 0 with packet number 224
Writing on path 0 with packet number 225
Writing on path 0 with packet number 226
Writing on path 0 with packet number 227
Writing on path 0 with packet number 228
Writing on path 0 with packet number 229
Writing on path 0 with packet number 230
Writing on path 0 with packet number 231
Writing on path 0 with packet number 232
Writing on path 0 with packet number 233
Writing on path 0 with packet number 234
Writing on path 0 with packet number 235
Writing on path 0 with packet number 236
Writing on path 0 with packet number 237
Writing on path 0 with packet number 238
Writing on path 0 with packet number 239
Writing on path 0 with packet number 240
Writing on path 0 with packet number 241
Writing on path 0 with packet number 242
Writing on path 0 with packet number 243
Writing on path 0 with packet number 244
Writing on path 0 with packet number 245
Writing on path 0 with packet number 246
Writing on path 0 with packet number 247
Writing on path 0 with packet number 248
Writing on path 0 with packet number 249
Writing on path 0 with packet number 250
Writing on path 0 with packet number 251
Writing on path 0 with packet number 252
Writing on path 0 with packet number 253
Writing on path 0 with packet number 254
Writing on path 0 with packet number 255
Writing on path 0 with packet number 256
Writing on path 0 with packet number 257
Writing on path 0 with packet number 258
Writing on path 0 with packet number 259
Writing on path 0 with packet number 260
Writing on path 0 with packet number 261
Writing on path 0 with packet number 262
Writing on path 0 with packet number 263
Writing on path 0 with packet number 264
Writing on path 0 with packet number 265
Writing on path 0 with packet number 266
Writing on path 0 with packet number 267
Writing on path 0 with packet number 268
Writing on path 0 with packet number 269
Writing on path 0 with packet number 270
Writing on path 0 with packet number 271
Writing on path 0 with packet number 272
Writing on path 0 with packet number 273
Writing on path 0 with packet number 274
Writing on path 0 with packet number 275
Writing on path 0 with packet number 276
Writing on path 0 with packet number 277
Writing on path 0 with packet number 278
Writing on path 0 with packet number 279
Writing on path 0 with packet number 280
Writing on path 0 with packet number 281
Writing on path 0 with packet number 282
Writing on path 0 with packet number 283
Writing on path 0 with packet number 284
Writing on path 0 with packet number 285
Writing on path 0 with packet number 286
Writing on path 0 with packet number 287
Writing on path 0 with packet number 288
Writing on path 0 with packet number 289
Writing on path 0 with packet number 290
Writing on path 0 with packet number 291
Writing on path 0 with packet number 292
Writing on path 0 with packet number 293
Writing on path 0 with packet number 294
Writing on path 0 with packet number 295
Writing on path 0 with packet number 296
Writing on path 0 with packet number 297
Writing on path 0 with packet number 298
Writing on path 0 with packet number 299
Writing on path 0 with packet number 300
Writing on path 0 with packet number 301
Writing on path 0 with packet number 302
Writing on path 0 with packet number 303
Writing on path 0 with packet number 304
Writing on path 0 with packet number 305
Writing on path 0 with packet number 306
Writing on path 0 with packet number 307
Writing on path 0 with packet number 308
Writing on path 0 with packet number 309
Writing on path 0 with packet number 310
Writing on path 0 with packet number 311
Writing on path 0 with packet number 312
Writing on path 0 with packet number 313
Writing on path 0 with packet number 314
Writing on path 0 with packet number 315
Writing on path 0 with packet number 316
Writing on path 0 with packet number 317
Writing on path 0 with packet number 318
Writing on path 0 with packet number 319
Writing on path 0 with packet number 320
Writing on path 0 with packet number 321
Writing on path 0 with packet number 322
Writing on path 0 with packet number 323
Writing on path 0 with packet number 324
Writing on path 0 with packet number 325
Writing on path 0 with packet number 326
Writing on path 0 with packet number 327
Writing on path 0 with packet number 328
Writing on path 0 with packet number 329
Writing on path 0 with packet number 330
Writing on path 0 with packet number 331
Writing on path 0 with packet number 332
Writing on path 0 with packet number 333
Writing on path 0 with packet number 334
Writing on path 0 with packet number 335
Writing on path 0 with packet number 336
Writing on path 0 with packet number 337
Writing on path 0 with packet number 338
Writing on path 0 with packet number 339
Writing on path 0 with packet number 340
Writing on path 0 with packet number 341
Writing on path 0 with packet number 342
Writing on path 0 with packet number 343
Writing on path 0 with packet number 344
Writing on path 0 with packet number 345
Writing on path 0 with packet number 346
Writing on path 0 with packet number 347
Writing on path 0 with packet number 348
Writing on path 0 with packet number 349
Writing on path 0 with packet number 350
Writing on path 0 with packet number 351
Writing on path 0 with packet number 352
Writing on path 0 with packet number 353
Writing on path 0 with packet number 354
Writing on path 0 with packet number 355
Writing on path 0 with packet number 356
Writing on path 0 with packet number 357
Writing on path 0 with packet number 358
Writing on path 0 with packet number 359
Writing on path 0 with packet number 360
Writing on path 0 with packet number 361
Writing on path 0 with packet number 362
Writing on path 0 with packet number 363
Writing on path 0 with packet number 364
Writing on path 0 with packet number 365
Writing on path 0 with packet number 366
Writing on path 0 with packet number 367
Writing on path 0 with packet number 368
Writing on path 0 with packet number 369
Writing on path 0 with packet number 370
Writing on path 0 with packet number 371
Writing on path 0 with packet number 372
Writing on path 0 with packet number 373
Writing on path 0 with packet number 374
Writing on path 0 with packet number 375
Writing on path 0 with packet number 376
Writing on path 0 with packet number 377
Writing on path 0 with packet number 378
Writing on path 0 with packet number 379
Writing on path 0 with packet number 380
Writing on path 0 with packet number 381
Writing on path 0 with packet number 382
Writing on path 0 with packet number 383
Writing on path 0 with packet number 384
Writing on path 0 with packet number 385
Writing on path 0 with packet number 386
Writing on path 0 with packet number 387
Writing on path 0 with packet number 388
Writing on path 0 with packet number 389
Writing on path 0 with packet number 390
Writing on path 0 with packet number 391
Writing on path 0 with packet number 392
Writing on path 0 with packet number 393
Writing on path 0 with packet number 394
Writing on path 0 with packet number 395
Writing on path 0 with packet number 396
Writing on path 0 with packet number 397
Writing on path 0 with packet number 398
Writing on path 0 with packet number 399
Writing on path 0 with packet number 400
Writing on path 0 with packet number 401
Writing on path 0 with packet number 402
Writing on path 0 with packet number 403
Writing on path 0 with packet number 404
Writing on path 0 with packet number 405
Writing on path 0 with packet number 406
Writing on path 0 with packet number 407
Writing on path 0 with packet number 408
Writing on path 0 with packet number 409
Writing on path 0 with packet number 410
Writing on path 0 with packet number 411
Writing on path 0 with packet number 412
Writing on path 0 with packet number 413
Writing on path 0 with packet number 414
Writing on path 0 with packet number 415
Writing on path 0 with packet number 416
Writing on path 0 with packet number 417
Writing on path 0 with packet number 418
Writing on path 0 with packet number 419
Writing on path 0 with packet number 420
Writing on path 0 with packet number 421
Writing on path 0 with packet number 422
Writing on path 0 with packet number 423
Writing on path 0 with packet number 424
Writing on path 0 with packet number 425
Writing on path 0 with packet number 426
Writing on path 0 with packet number 427
Writing on path 0 with packet number 428
Writing on path 0 with packet number 429
Writing on path 0 with packet number 430
Writing on path 0 with packet number 431
Writing on path 0 with packet number 432
Writing on path 0 with packet number 433
Writing on path 0 with packet number 434
Writing on path 0 with packet number 435
Writing on path 0 with packet number 436
Writing on path 0 with packet number 437
Writing on path 0 with packet number 438
Writing on path 0 with packet number 439
Writing on path 0 with packet number 440
Writing on path 0 with packet number 441
Writing on path 0 with packet number 442
Writing on path 0 with packet number 443
Writing on path 0 with packet number 444
Writing on path 0 with packet number 445
Writing on path 0 with packet number 446
Writing on path 0 with packet number 447
Writing on path 0 with packet number 448
Writing on path 0 with packet number 449
Writing on path 0 with packet number 450
Writing on path 0 with packet number 451
Writing on path 0 with packet number 452
Writing on path 0 with packet number 453
Writing on path 0 with packet number 454
Writing on path 0 with packet number 455
Writing on path 0 with packet number 456
Writing on path 0 with packet number 457
Writing on path 0 with packet number 458
Writing on path 0 with packet number 459
Writing on path 0 with packet number 460
Writing on path 0 with packet number 461
Writing on path 0 with packet number 462
Writing on path 0 with packet number 463
Writing on path 0 with packet number 464
Writing on path 0 with packet number 465
Writing on path 0 with packet number 466
Writing on path 0 with packet number 467
Writing on path 0 with packet number 468
Writing on path 0 with packet number 469
Writing on path 0 with packet number 470
Writing on path 0 with packet number 471
Writing on path 0 with packet number 472
Writing on path 0 with packet number 473
Writing on path 0 with packet number 474
Writing on path 0 with packet number 475
Writing on path 0 with packet number 476
Writing on path 0 with packet number 477
Writing on path 0 with packet number 478
Writing on path 0 with packet number 479
Writing on path 0 with packet number 480
Writing on path 0 with packet number 481
Writing on path 0 with packet number 482
Writing on path 0 with packet number 483
Writing on path 0 with packet number 484
Writing on path 0 with packet number 485
Writing on path 0 with packet number 486
Writing on path 0 with packet number 487
Writing on path 0 with packet number 488
Writing on path 0 with packet number 489
Writing on path 0 with packet number 490
Writing on path 0 with packet number 491
Writing on path 0 with packet number 492
Writing on path 0 with packet number 493
Writing on path 0 with packet number 494
Writing on path 0 with packet number 495
Writing on path 0 with packet number 496
Writing on path 0 with packet number 497
Writing on path 0 with packet number 498
Writing on path 0 with packet number 499
Writing on path 0 with packet number 500
Writing on path 0 with packet number 501
Writing on path 0 with packet number 502
Writing on path 0 with packet number 503
Writing on path 0 with packet number 504
Writing on path 0 with packet number 505
Writing on path 0 with packet number 506
Writing on path 0 with packet number 507
Writing on path 0 with packet number 508
Writing on path 0 with packet number 509
Writing on path 0 with packet number 510
Writing on path 0 with packet number 511
Writing on path 0 with packet number 512
Writing on path 0 with packet number 513
Writing on path 0 with packet number 514
Writing on path 0 with packet number 515
Writing on path 0 with packet number 516
Writing on path 0 with packet number 517
Writing on path 0 with packet number 518
Writing on path 0 with packet number 519
Writing on path 0 with packet number 520
Writing on path 0 with packet number 521
Writing on path 0 with packet number 522
Writing on path 0 with packet number 523
Writing on path 0 with packet number 524
Writing on path 0 with packet number 525
Writing on path 0 with packet number 526
Writing on path 0 with packet number 527
Writing on path 0 with packet number 528
Writing on path 0 with packet number 529
Writing on path 0 with packet number 530
Writing on path 0 with packet number 531
Writing on path 0 with packet number 532
Writing on path 0 with packet number 533
Writing on path 0 with packet number 534
Writing on path 0 with packet number 535
Writing on path 0 with packet number 536
Writing on path 0 with packet number 537
Writing on path 0 with packet number 538
Writing on path 0 with packet number 539
Writing on path 0 with packet number 540
Writing on path 0 with packet number 541
Writing on path 0 with packet number 542
Writing on path 0 with packet number 543
Writing on path 0 with packet number 544
Writing on path 0 with packet number 545
Writing on path 0 with packet number 546
Writing on path 0 with packet number 547
Writing on path 0 with packet number 548
Writing on path 0 with packet number 549
Writing on path 0 with packet number 550
Writing on path 0 with packet number 551
Writing on path 0 with packet number 552
Writing on path 0 with packet number 553
Writing on path 0 with packet number 554
Writing on path 0 with packet number 555
Writing on path 0 with packet number 556
Writing on path 0 with packet number 557
Writing on path 0 with packet number 558
Writing on path 0 with packet number 559
Writing on path 0 with packet number 560
Writing on path 0 with packet number 561
Writing on path 0 with packet number 562
Writing on path 0 with packet number 563
Writing on path 0 with packet number 564
Writing on path 0 with packet number 565
Writing on path 0 with packet number 566
Writing on path 0 with packet number 567
Writing on path 0 with packet number 568
Writing on path 0 with packet number 569
Writing on path 0 with packet number 570
Writing on path 0 with packet number 571
Writing on path 0 with packet number 572
Writing on path 0 with packet number 573
Writing on path 0 with packet number 574
Writing on path 0 with packet number 575
Writing on path 0 with packet number 576
Writing on path 0 with packet number 577
Writing on path 0 with packet number 578
Writing on path 0 with packet number 579
Writing on path 0 with packet number 580
Writing on path 0 with packet number 581
Writing on path 0 with packet number 582
Writing on path 0 with packet number 583
Writing on path 0 with packet number 584
Writing on path 0 with packet number 585
Writing on path 0 with packet number 586
Writing on path 0 with packet number 587
Writing on path 0 with packet number 588
Writing on path 0 with packet number 589
Writing on path 0 with packet number 590
Writing on path 0 with packet number 591
Writing on path 0 with packet number 592
Writing on path 0 with packet number 593
Writing on path 0 with packet number 594
Writing on path 0 with packet number 595
Writing on path 0 with packet number 596
Writing on path 0 with packet number 597
Writing on path 0 with packet number 598
Writing on path 0 with packet number 599
Writing on path 0 with packet number 600
Writing on path 0 with packet number 601
Writing on path 0 with packet number 602
Writing on path 0 with packet number 603
Writing on path 0 with packet number 604
Writing on path 0 with packet number 605
Writing on path 0 with packet number 606
Writing on path 0 with packet number 607
Writing on path 0 with packet number 608
Writing on path 0 with packet number 609
Writing on path 0 with packet number 610
Writing on path 0 with packet number 611
Writing on path 0 with packet number 612
Writing on path 0 with packet number 613
Writing on path 0 with packet number 614
Writing on path 0 with packet number 615
Writing on path 0 with packet number 616
Writing on path 0 with packet number 617
Writing on path 0 with packet number 618
Writing on path 0 with packet number 619
Writing on path 0 with packet number 620
Writing on path 0 with packet number 621
Writing on path 0 with packet number 622
Writing on path 0 with packet number 623
Writing on path 0 with packet number 624
Writing on path 0 with packet number 625
Writing on path 0 with packet number 626
Writing on path 0 with packet number 627
Writing on path 0 with packet number 628
Writing on path 0 with packet number 629
Writing on path 0 with packet number 630
Writing on path 0 with packet number 631
Writing on path 0 with packet number 632
Writing on path 0 with packet number 633
Writing on path 0 with packet number 634
Writing on path 0 with packet number 635
Writing on path 0 with packet number 636
Writing on path 0 with packet number 637
Writing on path 0 with packet number 638
Writing on path 0 with packet number 639
Writing on path 0 with packet number 640
Writing on path 0 with packet number 641
Writing on path 0 with packet number 642
Writing on path 0 with packet number 643
Writing on path 0 with packet number 644
Writing on path 0 with packet number 645
Writing on path 0 with packet number 646
Writing on path 0 with packet number 647
Writing on path 0 with packet number 648
Writing on path 0 with packet number 649
Writing on path 0 with packet number 650
Writing on path 0 with packet number 651
Writing on path 0 with packet number 652
Writing on path 0 with packet number 653
Writing on path 0 with packet number 654
Writing on path 0 with packet number 655
Writing on path 0 with packet number 656
Writing on path 0 with packet number 657
Writing on path 0 with packet number 658
Writing on path 0 with packet number 659
Writing on path 0 with packet number 660
Writing on path 0 with packet number 661
Writing on path 0 with packet number 662
Writing on path 0 with packet number 663
Writing on path 0 with packet number 664
Writing on path 0 with packet number 665
Writing on path 0 with packet number 666
Writing on path 0 with packet number 667
Writing on path 0 with packet number 668
Writing on path 0 with packet number 669
Writing on path 0 with packet number 670
Writing on path 0 with packet number 671
Writing on path 0 with packet number 672
Writing on path 0 with packet number 673
Writing on path 0 with packet number 674
Writing on path 0 with packet number 675
Writing on path 0 with packet number 676
Writing on path 0 with packet number 677
Writing on path 0 with packet number 678
Writing on path 0 with packet number 679
Writing on path 0 with packet number 680
Writing on path 0 with packet number 681
Writing on path 0 with packet number 682
Writing on path 0 with packet number 683
Writing on path 0 with packet number 684
Writing on path 0 with packet number 685
Writing on path 0 with packet number 686
Writing on path 0 with packet number 687
Writing on path 0 with packet number 688
Writing on path 0 with packet number 689
Writing on path 0 with packet number 690
Writing on path 0 with packet number 691
Writing on path 0 with packet number 692
Writing on path 0 with packet number 693
Writing on path 0 with packet number 694
Writing on path 0 with packet number 695
Writing on path 0 with packet number 696
Writing on path 0 with packet number 697
Writing on path 0 with packet number 698
Writing on path 0 with packet number 699
Writing on path 0 with packet number 700
Writing on path 0 with packet number 701
Writing on path 0 with packet number 702
Writing on path 0 with packet number 703
Writing on path 0 with packet number 704
Writing on path 0 with packet number 705
Writing on path 0 with packet number 706
Writing on path 0 with packet number 707
Writing on path 0 with packet number 708
Writing on path 0 with packet number 709
Writing on path 0 with packet number 710
Writing on path 0 with packet number 711
Writing on path 0 with packet number 712
Writing on path 0 with packet number 713
Writing on path 0 with packet number 714
Writing on path 0 with packet number 715
Writing on path 0 with packet number 716
Writing on path 0 with packet number 717
Writing on path 0 with packet number 718
Writing on path 0 with packet number 719
Writing on path 0 with packet number 720
Writing on path 0 with packet number 721
Writing on path 0 with packet number 722
Writing on path 0 with packet number 723
Writing on path 0 with packet number 724
Writing on path 0 with packet number 725
Writing on path 0 with packet number 726
Writing on path 0 with packet number 727
Writing on path 0 with packet number 728
Writing on path 0 with packet number 729
Writing on path 0 with packet number 730
Writing on path 0 with packet number 731
Writing on path 0 with packet number 732
Writing on path 0 with packet number 733
Writing on path 0 with packet number 734
Writing on path 0 with packet number 735
Writing on path 0 with packet number 736
Writing on path 0 with packet number 737
Writing on path 0 with packet number 738
Writing on path 0 with packet number 739
Writing on path 0 with packet number 740
Writing on path 0 with packet number 741
Writing on path 0 with packet number 742
Writing on path 0 with packet number 743
Writing on path 0 with packet number 744
Writing on path 0 with packet number 745
Writing on path 0 with packet number 746
Writing on path 0 with packet number 747
Writing on path 0 with packet number 748
Writing on path 0 with packet number 749
Writing on path 0 with packet number 750
Writing on path 0 with packet number 751
Writing on path 0 with packet number 752
Writing on path 0 with packet number 753
Writing on path 0 with packet number 754
Writing on path 0 with packet number 755
Writing on path 0 with packet number 756
Writing on path 0 with packet number 757
Writing on path 0 with packet number 758
Writing on path 0 with packet number 759
Writing on path 0 with packet number 760
Writing on path 0 with packet number 761
Writing on path 0 with packet number 762
Writing on path 0 with packet number 763
Writing on path 0 with packet number 764
Writing on path 0 with packet number 765
Writing on path 0 with packet number 766
Writing on path 0 with packet number 767
Writing on path 0 with packet number 768
Writing on path 0 with packet number 769
Writing on path 0 with packet number 770
Writing on path 0 with packet number 771
Writing on path 0 with packet number 772
Writing on path 0 with packet number 773
Writing on path 0 with packet number 774
Writing on path 0 with packet number 775
Writing on path 0 with packet number 776
Writing on path 0 with packet number 777
Writing on path 0 with packet number 778
Writing on path 0 with packet number 779
Writing on path 0 with packet number 780
Writing on path 0 with packet number 781
Writing on path 0 with packet number 782
Writing on path 0 with packet number 783
Writing on path 0 with packet number 784
Writing on path 0 with packet number 785
Writing on path 0 with packet number 786
Writing on path 0 with packet number 787
Writing on path 0 with packet number 788
Writing on path 0 with packet number 789
Writing on path 0 with packet number 790
Writing on path 0 with packet number 791
Writing on path 0 with packet number 792
Writing on path 0 with packet number 793
Writing on path 0 with packet number 794
Writing on path 0 with packet number 795
Writing on path 0 with packet number 796
Writing on path 0 with packet number 797
Writing on path 0 with packet number 798
Writing on path 0 with packet number 799
Writing on path 0 with packet number 800
Writing on path 0 with packet number 801
Writing on path 0 with packet number 802
Writing on path 0 with packet number 803
Writing on path 0 with packet number 804
Writing on path 0 with packet number 805
Writing on path 0 with packet number 806
Writing on path 0 with packet number 807
Writing on path 0 with packet number 808
Writing on path 0 with packet number 809
Writing on path 0 with packet number 810
Writing on path 0 with packet number 811
Writing on path 0 with packet number 812
Writing on path 0 with packet number 813
Writing on path 0 with packet number 814
Writing on path 0 with packet number 815
Writing on path 0 with packet number 816
Writing on path 0 with packet number 817
Writing on path 0 with packet number 818
Writing on path 0 with packet number 819
Writing on path 0 with packet number 820
Writing on path 0 with packet number 821
Writing on path 0 with packet number 822
Writing on path 0 with packet number 823
Writing on path 0 with packet number 824
Writing on path 0 with packet number 825
Writing on path 0 with packet number 826
Writing on path 0 with packet number 827
Writing on path 0 with packet number 828
Writing on path 0 with packet number 829
Writing on path 0 with packet number 830
Writing on path 0 with packet number 831
